%YAML 1.1
%TAG !u! tag:unity3d.com,2011:
--- !u!1 &6248558195594393942
GameObject:
  m_ObjectHideFlags: 0
  m_CorrespondingSourceObject: {fileID: 0}
  m_PrefabInstance: {fileID: 0}
  m_PrefabAsset: {fileID: 0}
  serializedVersion: 6
  m_Component:
  - component: {fileID: 6248558195594393938}
  - component: {fileID: 6248558195594393940}
  - component: {fileID: 6248558195594393943}
  m_Layer: 0
  m_Name: EnemySpawner
  m_TagString: Untagged
  m_Icon: {fileID: 0}
  m_NavMeshLayer: 0
  m_StaticEditorFlags: 0
  m_IsActive: 1
--- !u!4 &6248558195594393938
Transform:
  m_ObjectHideFlags: 0
  m_CorrespondingSourceObject: {fileID: 0}
  m_PrefabInstance: {fileID: 0}
  m_PrefabAsset: {fileID: 0}
  m_GameObject: {fileID: 6248558195594393942}
  m_LocalRotation: {x: 0, y: 0, z: 0, w: 1}
  m_LocalPosition: {x: 12.71, y: -0, z: 8.591}
  m_LocalScale: {x: 0.5, y: 0.05, z: 0.5}
  m_Children: []
  m_Father: {fileID: 0}
  m_RootOrder: 0
  m_LocalEulerAnglesHint: {x: 0, y: 0, z: 0}
--- !u!114 &6248558195594393940
MonoBehaviour:
  m_ObjectHideFlags: 0
  m_CorrespondingSourceObject: {fileID: 0}
  m_PrefabInstance: {fileID: 0}
  m_PrefabAsset: {fileID: 0}
  m_GameObject: {fileID: 6248558195594393942}
  m_Enabled: 1
  m_EditorHideFlags: 0
  m_Script: {fileID: 11500000, guid: 739d3726848c502499ac1e68e9aa7ac9, type: 3}
  m_Name: 
  m_EditorClassIdentifier: 
  scale: {x: 0.6, y: 1.8, z: 0.6}
--- !u!114 &6248558195594393943
MonoBehaviour:
  m_ObjectHideFlags: 0
  m_CorrespondingSourceObject: {fileID: 0}
  m_PrefabInstance: {fileID: 0}
  m_PrefabAsset: {fileID: 0}
  m_GameObject: {fileID: 6248558195594393942}
  m_Enabled: 1
  m_EditorHideFlags: 0
  m_Script: {fileID: 11500000, guid: bc0069cdcb74585479d9c8001fbf4dcd, type: 3}
  m_Name: 
  m_EditorClassIdentifier: 
  enemy: {fileID: 1645797219, guid: 7a6531f1baad65c4d9b4a65d55176f47, type: 3}
  maxActiveEnemies: 1
  spawnDelay: 5
  enemyCount: 3
